[
    {
        "menuText": "Create",
        "menuLink": "/createEvent"
    },
    {
        "menuText": "Remainder",
        "menuLink": "/reminder-form"
    },
    {
        "menuText": "updateForm",
        "menuLink": "/updateForm"
    }
]